digraph "TiXmlUnknown"
{
 // LATEX_PDF_SIZE
  edge [fontname="Helvetica",fontsize="10",labelfontname="Helvetica",labelfontsize="10"];
  node [fontname="Helvetica",fontsize="10",shape=record];
  Node1 [label="TiXmlUnknown",height=0.2,width=0.4,color="black", fillcolor="grey75", style="filled", fontcolor="black",tooltip=" "];
  Node2 -> Node1 [dir="back",color="midnightblue",fontsize="10",style="solid",fontname="Helvetica"];
  Node2 [label="TiXmlNode",height=0.2,width=0.4,color="black", fillcolor="white", style="filled",URL="$classTiXmlNode.html",tooltip=" "];
  Node3 -> Node2 [dir="back",color="midnightblue",fontsize="10",style="solid",fontname="Helvetica"];
  Node3 [label="TiXmlBase",height=0.2,width=0.4,color="black", fillcolor="white", style="filled",URL="$classTiXmlBase.html",tooltip=" "];
  Node2 -> Node2 [dir="back",color="darkorchid3",fontsize="10",style="dashed",label=" prev\nnext\nfirstChild\nlastChild\nparent" ,fontname="Helvetica"];
}
