digraph "GMockOutputTest"
{
 // LATEX_PDF_SIZE
  edge [fontname="Helvetica",fontsize="10",labelfontname="Helvetica",labelfontsize="10"];
  node [fontname="Helvetica",fontsize="10",shape=record];
  Node1 [label="GMockOutputTest",height=0.2,width=0.4,color="black", fillcolor="grey75", style="filled", fontcolor="black",tooltip=" "];
  Node2 -> Node1 [dir="back",color="midnightblue",fontsize="10",style="solid",fontname="Helvetica"];
  Node2 [label="testing::Test",height=0.2,width=0.4,color="black", fillcolor="white", style="filled",URL="$classtesting_1_1Test.html",tooltip=" "];
  Node3 -> Node1 [dir="back",color="darkorchid3",fontsize="10",style="dashed",label=" foo_" ,fontname="Helvetica"];
  Node3 [label="testing::NaggyMock\l\< MockFoo \>",height=0.2,width=0.4,color="black", fillcolor="white", style="filled",URL="$classtesting_1_1NaggyMock.html",tooltip=" "];
  Node4 -> Node3 [dir="back",color="midnightblue",fontsize="10",style="solid",fontname="Helvetica"];
  Node4 [label="anonymous:",height=0.2,width=0.4,color="grey75", fillcolor="white", style="filled",tooltip=" "];
}
