digraph "algo_s"
{
 // LATEX_PDF_SIZE
  edge [fontname="Helvetica",fontsize="10",labelfontname="Helvetica",labelfontsize="10"];
  node [fontname="Helvetica",fontsize="10",shape=record];
  rankdir="LR";
  Node1 [label="algo_s",height=0.2,width=0.4,color="black", fillcolor="grey75", style="filled", fontcolor="black",tooltip=" "];
  Node2 -> Node1 [dir="back",color="darkorchid3",fontsize="10",style="dashed",label=" cod_info" ,fontname="Helvetica"];
  Node2 [label="gr_info",height=0.2,width=0.4,color="black", fillcolor="white", style="filled",URL="$structgr__info.html",tooltip=" "];
  Node1 -> Node1 [dir="back",color="darkorchid3",fontsize="10",style="dashed",label=" alloc" ,fontname="Helvetica"];
  Node3 -> Node1 [dir="back",color="darkorchid3",fontsize="10",style="dashed",label=" gfc" ,fontname="Helvetica"];
  Node3 [label="lame_internal_flags",height=0.2,width=0.4,color="black", fillcolor="white", style="filled",URL="$structlame__internal__flags.html",tooltip=" "];
  Node4 -> Node3 [dir="back",color="darkorchid3",fontsize="10",style="dashed",label=" sv_enc" ,fontname="Helvetica"];
  Node4 [label="EncStateVar_t",height=0.2,width=0.4,color="black", fillcolor="white", style="filled",URL="$structEncStateVar__t.html",tooltip=" "];
  Node5 -> Node3 [dir="back",color="darkorchid3",fontsize="10",style="dashed",label=" sv_psy" ,fontname="Helvetica"];
  Node5 [label="PsyStateVar_t",height=0.2,width=0.4,color="black", fillcolor="white", style="filled",URL="$structPsyStateVar__t.html",tooltip=" "];
  Node6 -> Node5 [dir="back",color="darkorchid3",fontsize="10",style="dashed",label=" thm\nen" ,fontname="Helvetica"];
  Node6 [label="III_psy_xmin",height=0.2,width=0.4,color="black", fillcolor="white", style="filled",URL="$structIII__psy__xmin.html",tooltip=" "];
  Node7 -> Node3 [dir="back",color="darkorchid3",fontsize="10",style="dashed",label=" cd_psy" ,fontname="Helvetica"];
  Node7 [label="PsyConst_t",height=0.2,width=0.4,color="black", fillcolor="white", style="filled",URL="$structPsyConst__t.html",tooltip=" "];
  Node8 -> Node7 [dir="back",color="darkorchid3",fontsize="10",style="dashed",label=" l_to_s\nl\ns" ,fontname="Helvetica"];
  Node8 [label="PsyConst_CB2SB_t",height=0.2,width=0.4,color="black", fillcolor="white", style="filled",URL="$structPsyConst__CB2SB__t.html",tooltip=" "];
  Node9 -> Node3 [dir="back",color="darkorchid3",fontsize="10",style="dashed",label=" scalefac_band" ,fontname="Helvetica"];
  Node9 [label="scalefac_struct",height=0.2,width=0.4,color="black", fillcolor="white", style="filled",URL="$structscalefac__struct.html",tooltip=" "];
  Node3 -> Node3 [dir="back",color="darkorchid3",fontsize="10",style="dashed",label=" iteration_loop" ,fontname="Helvetica"];
  Node10 -> Node3 [dir="back",color="darkorchid3",fontsize="10",style="dashed",label=" pinfo" ,fontname="Helvetica"];
  Node10 [label="plotting_data",height=0.2,width=0.4,color="black", fillcolor="white", style="filled",URL="$structplotting__data.html",tooltip=" "];
  Node11 -> Node3 [dir="back",color="darkorchid3",fontsize="10",style="dashed",label=" ATH" ,fontname="Helvetica"];
  Node11 [label="ATH_t",height=0.2,width=0.4,color="black", fillcolor="white", style="filled",URL="$structATH__t.html",tooltip=" "];
  Node12 -> Node3 [dir="back",color="darkorchid3",fontsize="10",style="dashed",label=" tag_spec" ,fontname="Helvetica"];
  Node12 [label="id3tag_spec",height=0.2,width=0.4,color="black", fillcolor="white", style="filled",URL="$structid3tag__spec.html",tooltip=" "];
  Node13 -> Node12 [dir="back",color="darkorchid3",fontsize="10",style="dashed",label=" v2_head\nv2_tail" ,fontname="Helvetica"];
  Node13 [label="FrameDataNode",height=0.2,width=0.4,color="black", fillcolor="white", style="filled",URL="$structFrameDataNode.html",tooltip=" "];
  Node13 -> Node13 [dir="back",color="darkorchid3",fontsize="10",style="dashed",label=" nxt" ,fontname="Helvetica"];
  Node14 -> Node13 [dir="back",color="darkorchid3",fontsize="10",style="dashed",label=" dim" ,fontname="Helvetica"];
  Node14 [label="System",height=0.2,width=0.4,color="grey75", fillcolor="white", style="filled",tooltip=" "];
  Node15 -> Node3 [dir="back",color="darkorchid3",fontsize="10",style="dashed",label=" bs" ,fontname="Helvetica"];
  Node15 [label="bit_stream_struc",height=0.2,width=0.4,color="black", fillcolor="white", style="filled",URL="$structbit__stream__struc.html",tooltip=" "];
  Node16 -> Node3 [dir="back",color="darkorchid3",fontsize="10",style="dashed",label=" ov_rpg" ,fontname="Helvetica"];
  Node16 [label="RpgResult_t",height=0.2,width=0.4,color="black", fillcolor="white", style="filled",URL="$structRpgResult__t.html",tooltip=" "];
  Node17 -> Node3 [dir="back",color="darkorchid3",fontsize="10",style="dashed",label=" ov_enc" ,fontname="Helvetica"];
  Node17 [label="EncResult_t",height=0.2,width=0.4,color="black", fillcolor="white", style="filled",URL="$structEncResult__t.html",tooltip=" "];
  Node18 -> Node3 [dir="back",color="darkorchid3",fontsize="10",style="dashed",label=" VBR_seek_table" ,fontname="Helvetica"];
  Node18 [label="VBR_seek_info_t",height=0.2,width=0.4,color="black", fillcolor="white", style="filled",URL="$structVBR__seek__info__t.html",tooltip=" "];
  Node19 -> Node3 [dir="back",color="darkorchid3",fontsize="10",style="dashed",label=" cfg" ,fontname="Helvetica"];
  Node19 [label="SessionConfig_t",height=0.2,width=0.4,color="black", fillcolor="white", style="filled",URL="$structSessionConfig__t.html",tooltip=" "];
  Node20 -> Node3 [dir="back",color="darkorchid3",fontsize="10",style="dashed",label=" sv_rpg" ,fontname="Helvetica"];
  Node20 [label="RpgStateVar_t",height=0.2,width=0.4,color="black", fillcolor="white", style="filled",URL="$structRpgStateVar__t.html",tooltip=" "];
  Node21 -> Node20 [dir="back",color="darkorchid3",fontsize="10",style="dashed",label=" rgdata" ,fontname="Helvetica"];
  Node21 [label="replaygain_data",height=0.2,width=0.4,color="black", fillcolor="white", style="filled",URL="$structreplaygain__data.html",tooltip=" "];
  Node22 -> Node3 [dir="back",color="darkorchid3",fontsize="10",style="dashed",label=" sv_qnt" ,fontname="Helvetica"];
  Node22 [label="QntStateVar_t",height=0.2,width=0.4,color="black", fillcolor="white", style="filled",URL="$structQntStateVar__t.html",tooltip=" "];
  Node23 -> Node3 [dir="back",color="darkorchid3",fontsize="10",style="dashed",label=" ov_psy" ,fontname="Helvetica"];
  Node23 [label="PsyResult_t",height=0.2,width=0.4,color="black", fillcolor="white", style="filled",URL="$structPsyResult__t.html",tooltip=" "];
  Node24 -> Node3 [dir="back",color="darkorchid3",fontsize="10",style="dashed",label=" l3_side" ,fontname="Helvetica"];
  Node24 [label="III_side_info_t",height=0.2,width=0.4,color="black", fillcolor="white", style="filled",URL="$structIII__side__info__t.html",tooltip=" "];
  Node2 -> Node24 [dir="back",color="darkorchid3",fontsize="10",style="dashed",label=" tt" ,fontname="Helvetica"];
}
