digraph "siginfo_t"
{
 // LATEX_PDF_SIZE
  edge [fontname="Helvetica",fontsize="10",labelfontname="Helvetica",labelfontsize="10"];
  node [fontname="Helvetica",fontsize="10",shape=record];
  Node1 [label="siginfo_t",height=0.2,width=0.4,color="black", fillcolor="grey75", style="filled", fontcolor="black",tooltip=" "];
  Node2 -> Node1 [dir="back",color="darkorchid3",fontsize="10",style="dashed",label=" si_sigval" ,fontname="Helvetica"];
  Node2 [label="sigval",height=0.2,width=0.4,color="black", fillcolor="white", style="filled",URL="$unionsigval.html",tooltip=" "];
}
