digraph "_libc_fpstate"
{
 // LATEX_PDF_SIZE
  edge [fontname="Helvetica",fontsize="10",labelfontname="Helvetica",labelfontsize="10"];
  node [fontname="Helvetica",fontsize="10",shape=record];
  Node1 [label="_libc_fpstate",height=0.2,width=0.4,color="black", fillcolor="grey75", style="filled", fontcolor="black",tooltip=" "];
  Node2 -> Node1 [dir="back",color="darkorchid3",fontsize="10",style="dashed",label=" _st" ,fontname="Helvetica"];
  Node2 [label="_libc_fpxreg",height=0.2,width=0.4,color="black", fillcolor="white", style="filled",URL="$struct__libc__fpxreg.html",tooltip=" "];
  Node3 -> Node1 [dir="back",color="darkorchid3",fontsize="10",style="dashed",label=" _xmm" ,fontname="Helvetica"];
  Node3 [label="_libc_xmmreg",height=0.2,width=0.4,color="black", fillcolor="white", style="filled",URL="$struct__libc__xmmreg.html",tooltip=" "];
}
