digraph "_xstate"
{
 // LATEX_PDF_SIZE
  edge [fontname="Helvetica",fontsize="10",labelfontname="Helvetica",labelfontsize="10"];
  node [fontname="Helvetica",fontsize="10",shape=record];
  Node1 [label="_xstate",height=0.2,width=0.4,color="black", fillcolor="grey75", style="filled", fontcolor="black",tooltip=" "];
  Node2 -> Node1 [dir="back",color="darkorchid3",fontsize="10",style="dashed",label=" xstate_hdr" ,fontname="Helvetica"];
  Node2 [label="_xsave_hdr",height=0.2,width=0.4,color="black", fillcolor="white", style="filled",URL="$struct__xsave__hdr.html",tooltip=" "];
  Node3 -> Node1 [dir="back",color="darkorchid3",fontsize="10",style="dashed",label=" ymmh" ,fontname="Helvetica"];
  Node3 [label="_ymmh_state",height=0.2,width=0.4,color="black", fillcolor="white", style="filled",URL="$struct__ymmh__state.html",tooltip=" "];
  Node4 -> Node1 [dir="back",color="darkorchid3",fontsize="10",style="dashed",label=" fpstate" ,fontname="Helvetica"];
  Node4 [label="_fpstate",height=0.2,width=0.4,color="black", fillcolor="white", style="filled",URL="$struct__fpstate.html",tooltip=" "];
  Node5 -> Node4 [dir="back",color="darkorchid3",fontsize="10",style="dashed",label=" _st" ,fontname="Helvetica"];
  Node5 [label="_fpxreg",height=0.2,width=0.4,color="black", fillcolor="white", style="filled",URL="$struct__fpxreg.html",tooltip=" "];
  Node6 -> Node4 [dir="back",color="darkorchid3",fontsize="10",style="dashed",label=" _xmm" ,fontname="Helvetica"];
  Node6 [label="_xmmreg",height=0.2,width=0.4,color="black", fillcolor="white", style="filled",URL="$struct__xmmreg.html",tooltip=" "];
}
